{
   "tracks":{
      "href":"https://api.spotify.com/v1/search?query=Holding+Absence%2Btrack%253AGravity&type=track&locale=en-GB%2Cen-US%3Bq%3D0.9%2Cen%3Bq%3D0.8&offset=0&limit=1",
      "limit":1,
      "next":"https://api.spotify.com/v1/search?query=Holding+Absence%2Btrack%253AGravity&type=track&locale=en-GB%2Cen-US%3Bq%3D0.9%2Cen%3Bq%3D0.8&offset=1&limit=1",
      "offset":0,
      "previous":null,
      "total":800,
      "items":[
         {
            "album":{
               "album_type":"single",
               "total_tracks":1,
               "available_markets":[
                  "AR",
                  "AU",
                  "AT",
                  "BE",
                  "BO",
                  "BR",
                  "BG",
                  "CA",
                  "CL",
                  "CO",
                  "CR",
                  "CY",
                  "CZ",
                  "DK",
                  "DO",
                  "DE",
                  "EC",
                  "EE",
                  "SV",
                  "FI",
                  "FR",
                  "GR",
                  "GT",
                  "HN",
                  "HK",
                  "HU",
                  "IS",
                  "IE",
                  "IT",
                  "LV",
                  "LT",
                  "LU",
                  "MY",
                  "MT",
                  "MX",
                  "NL",
                  "NZ",
                  "NI",
                  "NO",
                  "PA",
                  "PY",
                  "PE",
                  "PH",
                  "PL",
                  "PT",
                  "SG",
                  "SK",
                  "ES",
                  "SE",
                  "CH",
                  "TW",
                  "TR",
                  "UY",
                  "US",
                  "GB",
                  "AD",
                  "LI",
                  "MC",
                  "ID",
                  "JP",
                  "TH",
                  "VN",
                  "RO",
                  "IL",
                  "ZA",
                  "SA",
                  "AE",
                  "BH",
                  "QA",
                  "OM",
                  "KW",
                  "EG",
                  "MA",
                  "DZ",
                  "TN",
                  "LB",
                  "JO",
                  "PS",
                  "IN",
                  "BY",
                  "KZ",
                  "MD",
                  "UA",
                  "AL",
                  "BA",
                  "HR",
                  "ME",
                  "MK",
                  "RS",
                  "SI",
                  "KR",
                  "BD",
                  "PK",
                  "LK",
                  "GH",
                  "KE",
                  "NG",
                  "TZ",
                  "UG",
                  "AG",
                  "AM",
                  "BS",
                  "BB",
                  "BZ",
                  "BT",
                  "BW",
                  "BF",
                  "CV",
                  "CW",
                  "DM",
                  "FJ",
                  "GM",
                  "GE",
                  "GD",
                  "GW",
                  "GY",
                  "HT",
                  "JM",
                  "KI",
                  "LS",
                  "LR",
                  "MW",
                  "MV",
                  "ML",
                  "MH",
                  "FM",
                  "NA",
                  "NR",
                  "NE",
                  "PW",
                  "PG",
                  "PR",
                  "WS",
                  "SM",
                  "ST",
                  "SN",
                  "SC",
                  "SL",
                  "SB",
                  "KN",
                  "LC",
                  "VC",
                  "SR",
                  "TL",
                  "TO",
                  "TT",
                  "TV",
                  "VU",
                  "AZ",
                  "BN",
                  "BI",
                  "KH",
                  "CM",
                  "TD",
                  "KM",
                  "GQ",
                  "SZ",
                  "GA",
                  "GN",
                  "KG",
                  "LA",
                  "MO",
                  "MR",
                  "MN",
                  "NP",
                  "RW",
                  "TG",
                  "UZ",
                  "ZW",
                  "BJ",
                  "MG",
                  "MU",
                  "MZ",
                  "AO",
                  "CI",
                  "DJ",
                  "ZM",
                  "CD",
                  "CG",
                  "IQ",
                  "LY",
                  "TJ",
                  "VE",
                  "ET",
                  "XK"
               ],
               "external_urls":{
                  "spotify":"https://open.spotify.com/album/3fJkiB6Z07sBWSkd9kDKba"
               },
               "href":"https://api.spotify.com/v1/albums/3fJkiB6Z07sBWSkd9kDKba",
               "id":"3fJkiB6Z07sBWSkd9kDKba",
               "images":[
                  {
                     "url":"https://i.scdn.co/image/ab67616d0000b2736bf649662f792b2c67bd90c2",
                     "height":640,
                     "width":640
                  },
                  {
                     "url":"https://i.scdn.co/image/ab67616d00001e026bf649662f792b2c67bd90c2",
                     "height":300,
                     "width":300
                  },
                  {
                     "url":"https://i.scdn.co/image/ab67616d000048516bf649662f792b2c67bd90c2",
                     "height":64,
                     "width":64
                  }
               ],
               "name":"Gravity",
               "release_date":"2020-03-27",
               "release_date_precision":"day",
               "type":"album",
               "uri":"spotify:album:3fJkiB6Z07sBWSkd9kDKba",
               "artists":[
                  {
                     "external_urls":{
                        "spotify":"https://open.spotify.com/artist/2tl280wIokrLjabzrSKTgU"
                     },
                     "href":"https://api.spotify.com/v1/artists/2tl280wIokrLjabzrSKTgU",
                     "id":"2tl280wIokrLjabzrSKTgU",
                     "name":"Holding Absence",
                     "type":"artist",
                     "uri":"spotify:artist:2tl280wIokrLjabzrSKTgU"
                  }
               ]
            },
            "artists":[
               {
                  "external_urls":{
                     "spotify":"https://open.spotify.com/artist/2tl280wIokrLjabzrSKTgU"
                  },
                  "href":"https://api.spotify.com/v1/artists/2tl280wIokrLjabzrSKTgU",
                  "id":"2tl280wIokrLjabzrSKTgU",
                  "name":"Holding Absence",
                  "type":"artist",
                  "uri":"spotify:artist:2tl280wIokrLjabzrSKTgU"
               }
            ],
            "available_markets":[
               "AR",
               "AU",
               "AT",
               "BE",
               "BO",
               "BR",
               "BG",
               "CA",
               "CL",
               "CO",
               "CR",
               "CY",
               "CZ",
               "DK",
               "DO",
               "DE",
               "EC",
               "EE",
               "SV",
               "FI",
               "FR",
               "GR",
               "GT",
               "HN",
               "HK",
               "HU",
               "IS",
               "IE",
               "IT",
               "LV",
               "LT",
               "LU",
               "MY",
               "MT",
               "MX",
               "NL",
               "NZ",
               "NI",
               "NO",
               "PA",
               "PY",
               "PE",
               "PH",
               "PL",
               "PT",
               "SG",
               "SK",
               "ES",
               "SE",
               "CH",
               "TW",
               "TR",
               "UY",
               "US",
               "GB",
               "AD",
               "LI",
               "MC",
               "ID",
               "JP",
               "TH",
               "VN",
               "RO",
               "IL",
               "ZA",
               "SA",
               "AE",
               "BH",
               "QA",
               "OM",
               "KW",
               "EG",
               "MA",
               "DZ",
               "TN",
               "LB",
               "JO",
               "PS",
               "IN",
               "BY",
               "KZ",
               "MD",
               "UA",
               "AL",
               "BA",
               "HR",
               "ME",
               "MK",
               "RS",
               "SI",
               "KR",
               "BD",
               "PK",
               "LK",
               "GH",
               "KE",
               "NG",
               "TZ",
               "UG",
               "AG",
               "AM",
               "BS",
               "BB",
               "BZ",
               "BT",
               "BW",
               "BF",
               "CV",
               "CW",
               "DM",
               "FJ",
               "GM",
               "GE",
               "GD",
               "GW",
               "GY",
               "HT",
               "JM",
               "KI",
               "LS",
               "LR",
               "MW",
               "MV",
               "ML",
               "MH",
               "FM",
               "NA",
               "NR",
               "NE",
               "PW",
               "PG",
               "PR",
               "WS",
               "SM",
               "ST",
               "SN",
               "SC",
               "SL",
               "SB",
               "KN",
               "LC",
               "VC",
               "SR",
               "TL",
               "TO",
               "TT",
               "TV",
               "VU",
               "AZ",
               "BN",
               "BI",
               "KH",
               "CM",
               "TD",
               "KM",
               "GQ",
               "SZ",
               "GA",
               "GN",
               "KG",
               "LA",
               "MO",
               "MR",
               "MN",
               "NP",
               "RW",
               "TG",
               "UZ",
               "ZW",
               "BJ",
               "MG",
               "MU",
               "MZ",
               "AO",
               "CI",
               "DJ",
               "ZM",
               "CD",
               "CG",
               "IQ",
               "LY",
               "TJ",
               "VE",
               "ET",
               "XK"
            ],
            "disc_number":1,
            "duration_ms":262432,
            "explicit":false,
            "external_ids":{
               "isrc":"DED832000156"
            },
            "external_urls":{
               "spotify":"https://open.spotify.com/track/1s1G7P7dp7M5v8Jo4ZikMT"
            },
            "href":"https://api.spotify.com/v1/tracks/1s1G7P7dp7M5v8Jo4ZikMT",
            "id":"1s1G7P7dp7M5v8Jo4ZikMT",
            "name":"Gravity",
            "popularity":53,
            "preview_url":"https://p.scdn.co/mp3-preview/7d97c03083a34709aec13e3aa5ddd9b5a9cfcc7e?cid=cfe923b2d660439caf2b557b21f31221",
            "track_number":1,
            "type":"track",
            "uri":"spotify:track:1s1G7P7dp7M5v8Jo4ZikMT",
            "is_local":false
         }
      ]
   }
}